<svg width="15" height="15" viewBox="0 0 15 15" fill="none" xmlns="http://www.w3.org/2000/svg">
<path d="M4.51181 2.2596C5.62383 0.0724926 8.74818 0.0724885 9.8602 2.2596L13.74 9.89033C14.7547 11.8861 13.3048 14.25 11.0658 14.25H3.30623C1.06725 14.25 -0.382714 11.8862 0.63204 9.89033L4.51181 2.2596Z" fill="white"/>
</svg>
